%YAML 1.1
%TAG !u! tag:unity3d.com,2011:
--- !u!114 &11400000
MonoBehaviour:
  m_ObjectHideFlags: 0
  m_CorrespondingSourceObject: {fileID: 0}
  m_PrefabInstance: {fileID: 0}
  m_PrefabAsset: {fileID: 0}
  m_GameObject: {fileID: 0}
  m_Enabled: 1
  m_EditorHideFlags: 0
  m_Script: {fileID: 11500000, guid: a591ba8865f930b43849017b593cf68d, type: 3}
  m_Name: StageProgress1
  m_EditorClassIdentifier: 
  _levelStates: 0300000002000000020000000300000003000000020000000100000001000000010000000100000001000000010000000100000001000000010000000100000001000000010000000100000001000000
