%YAML 1.1
%TAG !u! tag:unity3d.com,2011:
--- !u!114 &11400000
MonoBehaviour:
  m_ObjectHideFlags: 0
  m_CorrespondingSourceObject: {fileID: 0}
  m_PrefabInstance: {fileID: 0}
  m_PrefabAsset: {fileID: 0}
  m_GameObject: {fileID: 0}
  m_Enabled: 1
  m_EditorHideFlags: 0
  m_Script: {fileID: 11500000, guid: d809d40de232d2b439d491f914ebbd08, type: 3}
  m_Name: Apple
  m_EditorClassIdentifier: 
  _sprite: {fileID: 21300000, guid: 767a7146c75f074468285f0839c59dce, type: 3}
  _isWashable: 1
  _isPreventContamination: 0
  _isUsageAnimation: 0
  _usageAnimationTrigger: 
  _alternatePosition: {x: 0, y: 0, z: 0}
  _alternateRotation: {x: 0, y: 0, z: 0}
  _alternateLocalScale: {x: 0, y: 0, z: 0}
  _alternateSortingOrder: 10
