%YAML 1.1
%TAG !u! tag:unity3d.com,2011:
--- !u!114 &11400000
MonoBehaviour:
  m_ObjectHideFlags: 0
  m_CorrespondingSourceObject: {fileID: 0}
  m_PrefabInstance: {fileID: 0}
  m_PrefabAsset: {fileID: 0}
  m_GameObject: {fileID: 0}
  m_Enabled: 1
  m_EditorHideFlags: 0
  m_Script: {fileID: 11500000, guid: d809d40de232d2b439d491f914ebbd08, type: 3}
  m_Name: Pretzel
  m_EditorClassIdentifier: 
  _sprite: {fileID: 21300000, guid: 95f6039464d304c4f94170db5544182a, type: 3}
  _isWashable: 0
  _isPreventContamination: 0
  _isUsageAnimation: 0
  _usageAnimationTrigger: 
  _alternatePosition: {x: 0.1, y: -1.75, z: 0}
  _alternateRotation: {x: 0, y: 0, z: 0}
  _alternateLocalScale: {x: 0.3, y: 0.3, z: 0.3}
  _alternateSortingOrder: 10
