%YAML 1.1
%TAG !u! tag:unity3d.com,2011:
--- !u!114 &11400000
MonoBehaviour:
  m_ObjectHideFlags: 0
  m_CorrespondingSourceObject: {fileID: 0}
  m_PrefabInstance: {fileID: 0}
  m_PrefabAsset: {fileID: 0}
  m_GameObject: {fileID: 0}
  m_Enabled: 1
  m_EditorHideFlags: 0
  m_Script: {fileID: 11500000, guid: f53eb230d4c57ce44837e9c0596d68da, type: 3}
  m_Name: ContaminationLevel
  m_EditorClassIdentifier: 
  value: 25.665094
  infectionThreshold: 20
  onInfectedEvent: {fileID: 11400000, guid: 36fb212ecc184aa4cab60240a13d63bd, type: 2}
